%YAML 1.1
%TAG !u! tag:unity3d.com,2011:
--- !u!1 &1007552198217250805
GameObject:
  m_ObjectHideFlags: 0
  m_CorrespondingSourceObject: {fileID: 0}
  m_PrefabInstance: {fileID: 0}
  m_PrefabAsset: {fileID: 0}
  serializedVersion: 6
  m_Component:
  - component: {fileID: 8888802101249714362}
  - component: {fileID: 1664285278857879832}
  m_Layer: 0
  m_Name: AudioManager
  m_TagString: Untagged
  m_Icon: {fileID: 0}
  m_NavMeshLayer: 0
  m_StaticEditorFlags: 0
  m_IsActive: 1
--- !u!4 &8888802101249714362
Transform:
  m_ObjectHideFlags: 0
  m_CorrespondingSourceObject: {fileID: 0}
  m_PrefabInstance: {fileID: 0}
  m_PrefabAsset: {fileID: 0}
  m_GameObject: {fileID: 1007552198217250805}
  m_LocalRotation: {x: -0, y: -0, z: -0, w: 1}
  m_LocalPosition: {x: 0, y: 0, z: 0}
  m_LocalScale: {x: 1, y: 1, z: 1}
  m_Children: []
  m_Father: {fileID: 0}
  m_RootOrder: 0
  m_LocalEulerAnglesHint: {x: 0, y: 0, z: 0}
--- !u!114 &1664285278857879832
MonoBehaviour:
  m_ObjectHideFlags: 0
  m_CorrespondingSourceObject: {fileID: 0}
  m_PrefabInstance: {fileID: 0}
  m_PrefabAsset: {fileID: 0}
  m_GameObject: {fileID: 1007552198217250805}
  m_Enabled: 1
  m_EditorHideFlags: 0
  m_Script: {fileID: 11500000, guid: 06418f6c96121fa47aad61173ce4696d, type: 3}
  m_Name: 
  m_EditorClassIdentifier: 
  shootSound: {fileID: 8300000, guid: 73802e0f290c8c24ba4acbe96ba8e104, type: 3}
  jumpSound: {fileID: 8300000, guid: d4839abea447dda479594b1955a631d8, type: 3}
  gameoverSound: {fileID: 8300000, guid: 8882525d430355543854dd7f4d0c60d9, type: 3}
  collectCoinSound: {fileID: 8300000, guid: 0e4ab3523b82e16488f5ea3423be18a8, type: 3}
  collectChestSound: {fileID: 8300000, guid: e78398e7606aed54a9bcc3f053ce1eec, type: 3}
  collectBonusSound: {fileID: 8300000, guid: ea11d6e51c1069f4db01f675a7f13e7a, type: 3}
  takeKeySound: {fileID: 8300000, guid: 8d6adb5121cca4a489ef08a1826576e2, type: 3}
  getDamageSound: {fileID: 8300000, guid: fa66040913bfd7a4e87c549cd73cf505, type: 3}
  goToDoorSound: {fileID: 8300000, guid: 94a29788ea18027448ee9c8c37a85176, type: 3}
  clickButtonSound: {fileID: 8300000, guid: 8c942384d565438439ea0c8a72d3d45b, type: 3}
  clickCancelSound: {fileID: 8300000, guid: e9261f6b57b190945a8abb724f1db655, type: 3}
